^U:\STACK\STACK\STACK.CPP|U:\STACK\STACK\STDAFX.CPP
U:\STACK\STACK\DEBUG\STDAFX.OBJ
^U:\STACK\STACK\STACK.CPP
U:\STACK\STACK\DEBUG\VC100.PDB
U:\STACK\STACK\DEBUG\STACK.OBJ
^U:\STACK\STACK\STDAFX.CPP
U:\STACK\STACK\DEBUG\VC100.PDB
