^C:\USERS\SEAN-LI\DOCUMENTS\BITBUCKET\KDU\SEMESTER 7\GAMEENGINE\SEANENGINE\SEANENGINE\RELEASE\.NETFRAMEWORK,VERSION=V4.0.ASSEMBLYATTRIBUTES.OBJ|C:\USERS\SEAN-LI\DOCUMENTS\BITBUCKET\KDU\SEMESTER 7\GAMEENGINE\SEANENGINE\SEANENGINE\RELEASE\APP.RES|C:\USERS\SEAN-LI\DOCUMENTS\BITBUCKET\KDU\SEMESTER 7\GAMEENGINE\SEANENGINE\SEANENGINE\RELEASE\ASSEMBLYINFO.OBJ|C:\USERS\SEAN-LI\DOCUMENTS\BITBUCKET\KDU\SEMESTER 7\GAMEENGINE\SEANENGINE\SEANENGINE\RELEASE\SEANENGINE.OBJ|C:\USERS\SEAN-LI\DOCUMENTS\BITBUCKET\KDU\SEMESTER 7\GAMEENGINE\SEANENGINE\SEANENGINE\RELEASE\STDAFX.OBJ
C:\USERS\SEAN-LI\DOCUMENTS\BITBUCKET\KDU\SEMESTER 7\GAMEENGINE\SEANENGINE\RELEASE\SEANENGINE.DLL
C:\USERS\SEAN-LI\DOCUMENTS\BITBUCKET\KDU\SEMESTER 7\GAMEENGINE\SEANENGINE\SEANENGINE\RELEASE\SEANENGINE.DLL.INTERMEDIATE.MANIFEST
C:\USERS\SEAN-LI\DOCUMENTS\BITBUCKET\KDU\SEMESTER 7\GAMEENGINE\SEANENGINE\RELEASE\SEANENGINE.PDB
