^D:\OOSAD\WEEK 5\FACTORYPATTERNDEMO\FACTORYPATTERNDEMO\FACTORYPATTERNDEMO\FACTORYPATTERNDEMO.CPP|D:\OOSAD\WEEK 5\FACTORYPATTERNDEMO\FACTORYPATTERNDEMO\FACTORYPATTERNDEMO\STDAFX.CPP
D:\OOSAD\WEEK 5\FACTORYPATTERNDEMO\FACTORYPATTERNDEMO\FACTORYPATTERNDEMO\DEBUG\VC120.PDB
D:\OOSAD\WEEK 5\FACTORYPATTERNDEMO\FACTORYPATTERNDEMO\FACTORYPATTERNDEMO\DEBUG\VC120.IDB
D:\OOSAD\WEEK 5\FACTORYPATTERNDEMO\FACTORYPATTERNDEMO\FACTORYPATTERNDEMO\DEBUG\FACTORYPATTERNDEMO.OBJ
D:\OOSAD\WEEK 5\FACTORYPATTERNDEMO\FACTORYPATTERNDEMO\FACTORYPATTERNDEMO\DEBUG\STDAFX.OBJ
^D:\OOSAD\WEEK 5\FACTORYPATTERNDEMO\FACTORYPATTERNDEMO\FACTORYPATTERNDEMO\FACTORYPATTERNDEMO.CPP
D:\OOSAD\WEEK 5\FACTORYPATTERNDEMO\FACTORYPATTERNDEMO\FACTORYPATTERNDEMO\DEBUG\VC120.PDB
D:\OOSAD\WEEK 5\FACTORYPATTERNDEMO\FACTORYPATTERNDEMO\FACTORYPATTERNDEMO\DEBUG\VC120.IDB
D:\OOSAD\WEEK 5\FACTORYPATTERNDEMO\FACTORYPATTERNDEMO\FACTORYPATTERNDEMO\DEBUG\FACTORYPATTERNDEMO.OBJ
^D:\OOSAD\WEEK 5\FACTORYPATTERNDEMO\FACTORYPATTERNDEMO\FACTORYPATTERNDEMO\STDAFX.CPP
D:\OOSAD\WEEK 5\FACTORYPATTERNDEMO\FACTORYPATTERNDEMO\FACTORYPATTERNDEMO\DEBUG\VC120.PDB
