^U:\QUEUE\QUEUE\DEBUG\QUEUE.EXE.EMBED.MANIFEST.RES|U:\QUEUE\QUEUE\DEBUG\QUEUE.OBJ|U:\QUEUE\QUEUE\DEBUG\STDAFX.OBJ
/ERRORREPORT:PROMPT /OUT:"U:\Queue\Debug\Queue.exe" /INCREMENTAL /NOLOGO kernel32.lib user32.lib gdi32.lib winspool.lib comdlg32.lib advapi32.lib shell32.lib ole32.lib oleaut32.lib uuid.lib odbc32.lib odbccp32.lib /MANIFEST /ManifestFile:"Debug\Queue.exe.intermediate.manifest" /MANIFESTUAC:"level='asInvoker' uiAccess='false'" /DEBUG /PDB:"U:\Queue\Debug\Queue.pdb" /SUBSYSTEM:CONSOLE /TLBID:1 /DYNAMICBASE /NXCOMPAT /IMPLIB:"U:\Queue\Debug\Queue.lib" /MACHINE:X86 Debug\Queue.exe.embed.manifest.res
Debug\Queue.obj
Debug\stdafx.obj
^C:\USERS\SEAN-LI MURMANN\GOOGLE DRIVE\KDU\SEMESTER 3\DATASTRUCTURES & ALGORITHMS\WEEK 2 (STACKS,QUEUES)\QUEUE\QUEUE\DEBUG\QUEUE.EXE.EMBED.MANIFEST.RES|C:\USERS\SEAN-LI MURMANN\GOOGLE DRIVE\KDU\SEMESTER 3\DATASTRUCTURES & ALGORITHMS\WEEK 2 (STACKS,QUEUES)\QUEUE\QUEUE\DEBUG\QUEUE.OBJ|C:\USERS\SEAN-LI MURMANN\GOOGLE DRIVE\KDU\SEMESTER 3\DATASTRUCTURES & ALGORITHMS\WEEK 2 (STACKS,QUEUES)\QUEUE\QUEUE\DEBUG\STDAFX.OBJ
/ERRORREPORT:PROMPT /OUT:"C:\Users\Sean-Li Murmann\Google Drive\KDU\Semester 3\DataStructures & Algorithms\Week 2 (Stacks,Queues)\Queue\Debug\Queue.exe" /INCREMENTAL /NOLOGO kernel32.lib user32.lib gdi32.lib winspool.lib comdlg32.lib advapi32.lib shell32.lib ole32.lib oleaut32.lib uuid.lib odbc32.lib odbccp32.lib /MANIFEST /ManifestFile:"Debug\Queue.exe.intermediate.manifest" /MANIFESTUAC:"level='asInvoker' uiAccess='false'" /DEBUG /PDB:"C:\Users\Sean-Li Murmann\Google Drive\KDU\Semester 3\DataStructures & Algorithms\Week 2 (Stacks,Queues)\Queue\Debug\Queue.pdb" /SUBSYSTEM:CONSOLE /TLBID:1 /DYNAMICBASE /NXCOMPAT /IMPLIB:"C:\Users\Sean-Li Murmann\Google Drive\KDU\Semester 3\DataStructures & Algorithms\Week 2 (Stacks,Queues)\Queue\Debug\Queue.lib" /MACHINE:X86 Debug\Queue.exe.embed.manifest.res
Debug\Queue.obj
Debug\stdafx.obj
