^F:\NOT IMPORTANT\OOSAD\WEEK 5\FACTORYPATTERN\CONSOLEAPPLICATION1\DEBUG\AEMPLOYEE.OBJ|F:\NOT IMPORTANT\OOSAD\WEEK 5\FACTORYPATTERN\CONSOLEAPPLICATION1\DEBUG\EMPLOYEE.OBJ|F:\NOT IMPORTANT\OOSAD\WEEK 5\FACTORYPATTERN\CONSOLEAPPLICATION1\DEBUG\FACTORYPATTERN.OBJ|F:\NOT IMPORTANT\OOSAD\WEEK 5\FACTORYPATTERN\CONSOLEAPPLICATION1\DEBUG\STDAFX.OBJ
F:\NOT IMPORTANT\OOSAD\WEEK 5\FACTORYPATTERN\CONSOLEAPPLICATION1\DEBUG\FACTORYPATTERN.CPP.ILK
F:\NOT IMPORTANT\OOSAD\WEEK 5\FACTORYPATTERN\CONSOLEAPPLICATION1\DEBUG\FACTORYPATTERN.CPP.EXE
F:\NOT IMPORTANT\OOSAD\WEEK 5\FACTORYPATTERN\CONSOLEAPPLICATION1\DEBUG\FACTORYPATTERN.CPP.PDB
