^D:\DUMPTOTHISFOLDER\DSA_STUDENTWORKS_SEPTEMBER2014\JASON YS\TEST\TEST.CPP
D:\DUMPTOTHISFOLDER\DSA_STUDENTWORKS_SEPTEMBER2014\JASON YS\TEST\DEBUG\TEST.OBJ
D:\DUMPTOTHISFOLDER\DSA_STUDENTWORKS_SEPTEMBER2014\JASON YS\TEST\DEBUG\VC100.PDB
