^D:\OOSAD\WEEK 4\FACTORYPATTERN\CONSOLEAPPLICATION1\CONSOLEAPPLICATION1.CPP|D:\OOSAD\WEEK 4\FACTORYPATTERN\CONSOLEAPPLICATION1\STDAFX.CPP
D:\OOSAD\WEEK 4\FACTORYPATTERN\CONSOLEAPPLICATION1\DEBUG\VC120.PDB
D:\OOSAD\WEEK 4\FACTORYPATTERN\CONSOLEAPPLICATION1\DEBUG\VC120.IDB
D:\OOSAD\WEEK 4\FACTORYPATTERN\CONSOLEAPPLICATION1\DEBUG\CONSOLEAPPLICATION1.OBJ
D:\OOSAD\WEEK 4\FACTORYPATTERN\CONSOLEAPPLICATION1\DEBUG\STDAFX.OBJ
^D:\OOSAD\WEEK 4\FACTORYPATTERN\CONSOLEAPPLICATION1\CONSOLEAPPLICATION1.CPP
D:\OOSAD\WEEK 4\FACTORYPATTERN\CONSOLEAPPLICATION1\DEBUG\VC120.PDB
^D:\OOSAD\WEEK 4\FACTORYPATTERN\CONSOLEAPPLICATION1\STDAFX.CPP
D:\OOSAD\WEEK 4\FACTORYPATTERN\CONSOLEAPPLICATION1\DEBUG\VC120.PDB
^D:\OOSAD\WEEK 4\FACTORYPATTERN\CONSOLEAPPLICATION1\AEMPLOYEE.CPP|D:\OOSAD\WEEK 4\FACTORYPATTERN\CONSOLEAPPLICATION1\EMPLOYEE.CPP|D:\OOSAD\WEEK 4\FACTORYPATTERN\CONSOLEAPPLICATION1\FACTORYPATTERN.CPP
D:\OOSAD\WEEK 4\FACTORYPATTERN\CONSOLEAPPLICATION1\DEBUG\VC120.PDB
D:\OOSAD\WEEK 4\FACTORYPATTERN\CONSOLEAPPLICATION1\DEBUG\VC120.IDB
^D:\OOSAD\WEEK 4\FACTORYPATTERN\CONSOLEAPPLICATION1\AEMPLOYEE.CPP
D:\OOSAD\WEEK 4\FACTORYPATTERN\CONSOLEAPPLICATION1\DEBUG\VC120.PDB
^D:\OOSAD\WEEK 4\FACTORYPATTERN\CONSOLEAPPLICATION1\EMPLOYEE.CPP
D:\OOSAD\WEEK 4\FACTORYPATTERN\CONSOLEAPPLICATION1\DEBUG\VC120.PDB
^D:\OOSAD\WEEK 4\FACTORYPATTERN\CONSOLEAPPLICATION1\FACTORYPATTERN.CPP
D:\OOSAD\WEEK 4\FACTORYPATTERN\CONSOLEAPPLICATION1\DEBUG\VC120.PDB
^D:\OOSAD\WEEK 4\FACTORYPATTERN\CONSOLEAPPLICATION1\AEMPLOYEE.CPP|D:\OOSAD\WEEK 4\FACTORYPATTERN\CONSOLEAPPLICATION1\CONSOLEAPPLICATION1.CPP|D:\OOSAD\WEEK 4\FACTORYPATTERN\CONSOLEAPPLICATION1\EMPLOYEE.CPP|D:\OOSAD\WEEK 4\FACTORYPATTERN\CONSOLEAPPLICATION1\FACTORYPATTERN.CPP
D:\OOSAD\WEEK 4\FACTORYPATTERN\CONSOLEAPPLICATION1\DEBUG\VC120.PDB
D:\OOSAD\WEEK 4\FACTORYPATTERN\CONSOLEAPPLICATION1\DEBUG\VC120.IDB
D:\OOSAD\WEEK 4\FACTORYPATTERN\CONSOLEAPPLICATION1\DEBUG\FACTORYPATTERN.OBJ
