^C:\USERS\SEAN-LI\DOCUMENTS\BITBUCKET\KDU\SEMESTER 7\GAMEENGINE\WEEK 2\GAMEENGINE_\DEBUG\GAMEENGINE_.EXE.INTERMEDIATE.MANIFEST
C:\USERS\SEAN-LI\DOCUMENTS\BITBUCKET\KDU\SEMESTER 7\GAMEENGINE\WEEK 2\DEBUG\GAMEENGINE_.EXE
^C:\USERS\SEAN-LI\DOCUMENTS\BITBUCKET\KDU\SEMESTER 7\GAMEENGINE\GAMEFACTORY\GAMEENGINE_\DEBUG\GAMEENGINE_.EXE.INTERMEDIATE.MANIFEST
C:\USERS\SEAN-LI\DOCUMENTS\BITBUCKET\KDU\SEMESTER 7\GAMEENGINE\GAMEFACTORY\DEBUG\GAMEENGINE_.EXE
