^\\AREA51-01\DUMPTOTHISFOLDER\DSA_STUDENTWORKS_SEPTEMBER2014\0109835 SEAN-LI MURMANN\WEEK 3 (STACKS,Q, E2)\STACKQUEUEEXERCISE4\STACKQUEUEEXERCISE4\DEBUG\STACKQUEUEEXERCISE4.EXE.EMBED.MANIFEST.RES|\\AREA51-01\DUMPTOTHISFOLDER\DSA_STUDENTWORKS_SEPTEMBER2014\0109835 SEAN-LI MURMANN\WEEK 3 (STACKS,Q, E2)\STACKQUEUEEXERCISE4\STACKQUEUEEXERCISE4\DEBUG\STACKQUEUEEXERCISE4.OBJ|\\AREA51-01\DUMPTOTHISFOLDER\DSA_STUDENTWORKS_SEPTEMBER2014\0109835 SEAN-LI MURMANN\WEEK 3 (STACKS,Q, E2)\STACKQUEUEEXERCISE4\STACKQUEUEEXERCISE4\DEBUG\STDAFX.OBJ
C:\PROGRAM FILES (X86)\MICROSOFT SDKS\WINDOWS\V7.0A\LIB\KERNEL32.LIB
C:\PROGRAM FILES (X86)\MICROSOFT SDKS\WINDOWS\V7.0A\LIB\USER32.LIB
C:\PROGRAM FILES (X86)\MICROSOFT SDKS\WINDOWS\V7.0A\LIB\GDI32.LIB
C:\PROGRAM FILES (X86)\MICROSOFT SDKS\WINDOWS\V7.0A\LIB\WINSPOOL.LIB
C:\PROGRAM FILES (X86)\MICROSOFT SDKS\WINDOWS\V7.0A\LIB\COMDLG32.LIB
C:\PROGRAM FILES (X86)\MICROSOFT SDKS\WINDOWS\V7.0A\LIB\ADVAPI32.LIB
C:\PROGRAM FILES (X86)\MICROSOFT SDKS\WINDOWS\V7.0A\LIB\SHELL32.LIB
C:\PROGRAM FILES (X86)\MICROSOFT SDKS\WINDOWS\V7.0A\LIB\OLE32.LIB
C:\PROGRAM FILES (X86)\MICROSOFT SDKS\WINDOWS\V7.0A\LIB\OLEAUT32.LIB
C:\PROGRAM FILES (X86)\MICROSOFT SDKS\WINDOWS\V7.0A\LIB\UUID.LIB
C:\PROGRAM FILES (X86)\MICROSOFT SDKS\WINDOWS\V7.0A\LIB\ODBC32.LIB
C:\PROGRAM FILES (X86)\MICROSOFT SDKS\WINDOWS\V7.0A\LIB\ODBCCP32.LIB
\\AREA51-01\DUMPTOTHISFOLDER\DSA_STUDENTWORKS_SEPTEMBER2014\0109835 SEAN-LI MURMANN\WEEK 3 (STACKS,Q, E2)\STACKQUEUEEXERCISE4\STACKQUEUEEXERCISE4\DEBUG\STACKQUEUEEXERCISE4.EXE.EMBED.MANIFEST.RES
\\AREA51-01\DUMPTOTHISFOLDER\DSA_STUDENTWORKS_SEPTEMBER2014\0109835 SEAN-LI MURMANN\WEEK 3 (STACKS,Q, E2)\STACKQUEUEEXERCISE4\STACKQUEUEEXERCISE4\DEBUG\STACKQUEUEEXERCISE4.OBJ
\\AREA51-01\DUMPTOTHISFOLDER\DSA_STUDENTWORKS_SEPTEMBER2014\0109835 SEAN-LI MURMANN\WEEK 3 (STACKS,Q, E2)\STACKQUEUEEXERCISE4\STACKQUEUEEXERCISE4\DEBUG\STDAFX.OBJ
C:\WINDOWS\SYSTEM32\TZRES.DLL
\\AREA51-01\DUMPTOTHISFOLDER\DSA_STUDENTWORKS_SEPTEMBER2014\0109835 SEAN-LI MURMANN\WEEK 3 (STACKS,Q, E2)\STACKQUEUEEXERCISE4\DEBUG\STACKQUEUEEXERCISE4.EXE
\\AREA51-01\DUMPTOTHISFOLDER\DSA_STUDENTWORKS_SEPTEMBER2014\0109835 SEAN-LI MURMANN\WEEK 3 (STACKS,Q, E2)\STACKQUEUEEXERCISE4\DEBUG\STACKQUEUEEXERCISE4.PDB
C:\WINDOWS\GLOBALIZATION\SORTING\SORTDEFAULT.NLS
C:\PROGRAM FILES (X86)\MICROSOFT VISUAL STUDIO 10.0\VC\LIB\MSVCPRTD.LIB
C:\PROGRAM FILES (X86)\MICROSOFT VISUAL STUDIO 10.0\VC\LIB\MSVCRTD.LIB
C:\PROGRAM FILES (X86)\MICROSOFT VISUAL STUDIO 10.0\VC\LIB\OLDNAMES.LIB
C:\PROGRAM FILES (X86)\MICROSOFT VISUAL STUDIO 10.0\VC\BIN\CVTRES.EXE
C:\WINDOWS\SYSTEM32\RSAENH.DLL
^F:\KDU\SEMESTER 3\DATASTRUCTURES & ALGORITHMS\WEEK 3\STACKQUEUEEXERCISE4\STACKQUEUEEXERCISE4\DEBUG\STACKQUEUEEXERCISE4.EXE.EMBED.MANIFEST.RES|F:\KDU\SEMESTER 3\DATASTRUCTURES & ALGORITHMS\WEEK 3\STACKQUEUEEXERCISE4\STACKQUEUEEXERCISE4\DEBUG\STACKQUEUEEXERCISE4.OBJ|F:\KDU\SEMESTER 3\DATASTRUCTURES & ALGORITHMS\WEEK 3\STACKQUEUEEXERCISE4\STACKQUEUEEXERCISE4\DEBUG\STDAFX.OBJ
C:\PROGRAM FILES (X86)\MICROSOFT SDKS\WINDOWS\V7.0A\LIB\KERNEL32.LIB
C:\PROGRAM FILES (X86)\MICROSOFT SDKS\WINDOWS\V7.0A\LIB\USER32.LIB
C:\PROGRAM FILES (X86)\MICROSOFT SDKS\WINDOWS\V7.0A\LIB\GDI32.LIB
C:\PROGRAM FILES (X86)\MICROSOFT SDKS\WINDOWS\V7.0A\LIB\WINSPOOL.LIB
C:\PROGRAM FILES (X86)\MICROSOFT SDKS\WINDOWS\V7.0A\LIB\COMDLG32.LIB
C:\PROGRAM FILES (X86)\MICROSOFT SDKS\WINDOWS\V7.0A\LIB\ADVAPI32.LIB
C:\PROGRAM FILES (X86)\MICROSOFT SDKS\WINDOWS\V7.0A\LIB\SHELL32.LIB
C:\PROGRAM FILES (X86)\MICROSOFT SDKS\WINDOWS\V7.0A\LIB\OLE32.LIB
C:\PROGRAM FILES (X86)\MICROSOFT SDKS\WINDOWS\V7.0A\LIB\OLEAUT32.LIB
C:\PROGRAM FILES (X86)\MICROSOFT SDKS\WINDOWS\V7.0A\LIB\UUID.LIB
C:\PROGRAM FILES (X86)\MICROSOFT SDKS\WINDOWS\V7.0A\LIB\ODBC32.LIB
C:\PROGRAM FILES (X86)\MICROSOFT SDKS\WINDOWS\V7.0A\LIB\ODBCCP32.LIB
F:\KDU\SEMESTER 3\DATASTRUCTURES & ALGORITHMS\WEEK 3\STACKQUEUEEXERCISE4\STACKQUEUEEXERCISE4\DEBUG\STACKQUEUEEXERCISE4.EXE.EMBED.MANIFEST.RES
F:\KDU\SEMESTER 3\DATASTRUCTURES & ALGORITHMS\WEEK 3\STACKQUEUEEXERCISE4\STACKQUEUEEXERCISE4\DEBUG\STACKQUEUEEXERCISE4.OBJ
F:\KDU\SEMESTER 3\DATASTRUCTURES & ALGORITHMS\WEEK 3\STACKQUEUEEXERCISE4\STACKQUEUEEXERCISE4\DEBUG\STDAFX.OBJ
C:\WINDOWS\SYSTEM32\TZRES.DLL
F:\KDU\SEMESTER 3\DATASTRUCTURES & ALGORITHMS\WEEK 3\STACKQUEUEEXERCISE4\DEBUG\STACKQUEUEEXERCISE4.EXE
F:\KDU\SEMESTER 3\DATASTRUCTURES & ALGORITHMS\WEEK 3\STACKQUEUEEXERCISE4\DEBUG\STACKQUEUEEXERCISE4.PDB
C:\WINDOWS\GLOBALIZATION\SORTING\SORTDEFAULT.NLS
C:\PROGRAM FILES (X86)\MICROSOFT VISUAL STUDIO 10.0\VC\LIB\MSVCPRTD.LIB
C:\PROGRAM FILES (X86)\MICROSOFT VISUAL STUDIO 10.0\VC\LIB\MSVCRTD.LIB
C:\PROGRAM FILES (X86)\MICROSOFT VISUAL STUDIO 10.0\VC\LIB\OLDNAMES.LIB
