^C:\USERS\SEAN-LI\DOCUMENTS\GITHUB\KDU_PROJECTS\SEMESTER 5\GRAPHICS PROGRAMMING\WAVE\OPENGL_VERTEX_ARRAY\MAIN.CPP|C:\USERS\SEAN-LI\DOCUMENTS\GITHUB\KDU_PROJECTS\SEMESTER 5\GRAPHICS PROGRAMMING\WAVE\OPENGL_VERTEX_ARRAY\MATRIX.CPP
C:\USERS\SEAN-LI\DOCUMENTS\GITHUB\KDU_PROJECTS\SEMESTER 5\GRAPHICS PROGRAMMING\WAVE\OPENGL_VERTEX_ARRAY\DEBUG\VC140.PDB
C:\USERS\SEAN-LI\DOCUMENTS\GITHUB\KDU_PROJECTS\SEMESTER 5\GRAPHICS PROGRAMMING\WAVE\OPENGL_VERTEX_ARRAY\DEBUG\VC140.IDB
C:\USERS\SEAN-LI\DOCUMENTS\GITHUB\KDU_PROJECTS\SEMESTER 5\GRAPHICS PROGRAMMING\WAVE\OPENGL_VERTEX_ARRAY\DEBUG\MAIN.OBJ
C:\USERS\SEAN-LI\DOCUMENTS\GITHUB\KDU_PROJECTS\SEMESTER 5\GRAPHICS PROGRAMMING\WAVE\OPENGL_VERTEX_ARRAY\DEBUG\MATRIX.OBJ
^C:\USERS\SEAN-LI\DOCUMENTS\GITHUB\KDU_PROJECTS\SEMESTER 5\GRAPHICS PROGRAMMING\WAVE\OPENGL_VERTEX_ARRAY\MAIN.CPP
C:\USERS\SEAN-LI\DOCUMENTS\GITHUB\KDU_PROJECTS\SEMESTER 5\GRAPHICS PROGRAMMING\WAVE\OPENGL_VERTEX_ARRAY\DEBUG\VC140.PDB
^C:\USERS\SEAN-LI\DOCUMENTS\GITHUB\KDU_PROJECTS\SEMESTER 5\GRAPHICS PROGRAMMING\WAVE\OPENGL_VERTEX_ARRAY\MATRIX.CPP
C:\USERS\SEAN-LI\DOCUMENTS\GITHUB\KDU_PROJECTS\SEMESTER 5\GRAPHICS PROGRAMMING\WAVE\OPENGL_VERTEX_ARRAY\DEBUG\VC140.PDB
