^D:\KDU\GRAPHICS PROGRAMMING\TUTORIAL\OPENGL_VERTEX_ARRAY\OPENGL_VERTEX_ARRAY\MAIN.CPP|D:\KDU\GRAPHICS PROGRAMMING\TUTORIAL\OPENGL_VERTEX_ARRAY\OPENGL_VERTEX_ARRAY\MATRIX.CPP
D:\KDU\GRAPHICS PROGRAMMING\TUTORIAL\OPENGL_VERTEX_ARRAY\OPENGL_VERTEX_ARRAY\DEBUG\MAIN.OBJ
D:\KDU\GRAPHICS PROGRAMMING\TUTORIAL\OPENGL_VERTEX_ARRAY\OPENGL_VERTEX_ARRAY\DEBUG\MATRIX.OBJ
^D:\KDU\GRAPHICS PROGRAMMING\TUTORIAL\OPENGL_VERTEX_ARRAY\OPENGL_VERTEX_ARRAY\MAIN.CPP
D:\KDU\GRAPHICS PROGRAMMING\TUTORIAL\OPENGL_VERTEX_ARRAY\OPENGL_VERTEX_ARRAY\DEBUG\VC100.PDB
D:\KDU\GRAPHICS PROGRAMMING\TUTORIAL\OPENGL_VERTEX_ARRAY\OPENGL_VERTEX_ARRAY\DEBUG\MAIN.OBJ
^D:\KDU\GRAPHICS PROGRAMMING\TUTORIAL\OPENGL_VERTEX_ARRAY\OPENGL_VERTEX_ARRAY\MATRIX.CPP
D:\KDU\GRAPHICS PROGRAMMING\TUTORIAL\OPENGL_VERTEX_ARRAY\OPENGL_VERTEX_ARRAY\DEBUG\VC100.PDB
^D:\KDU\GRAPHICS PROGRAMMING\TUTORIAL\WAVE_ONLLY\OPENGL_VERTEX_ARRAY\MAIN.CPP|D:\KDU\GRAPHICS PROGRAMMING\TUTORIAL\WAVE_ONLLY\OPENGL_VERTEX_ARRAY\MATRIX.CPP
D:\KDU\GRAPHICS PROGRAMMING\TUTORIAL\WAVE_ONLLY\OPENGL_VERTEX_ARRAY\DEBUG\MAIN.OBJ
D:\KDU\GRAPHICS PROGRAMMING\TUTORIAL\WAVE_ONLLY\OPENGL_VERTEX_ARRAY\DEBUG\MATRIX.OBJ
^D:\KDU\GRAPHICS PROGRAMMING\TUTORIAL\WAVE_ONLLY\OPENGL_VERTEX_ARRAY\MAIN.CPP
D:\KDU\GRAPHICS PROGRAMMING\TUTORIAL\WAVE_ONLLY\OPENGL_VERTEX_ARRAY\DEBUG\VC100.PDB
D:\KDU\GRAPHICS PROGRAMMING\TUTORIAL\WAVE_ONLLY\OPENGL_VERTEX_ARRAY\DEBUG\MAIN.OBJ
^D:\KDU\GRAPHICS PROGRAMMING\TUTORIAL\WAVE_ONLLY\OPENGL_VERTEX_ARRAY\MATRIX.CPP
D:\KDU\GRAPHICS PROGRAMMING\TUTORIAL\WAVE_ONLLY\OPENGL_VERTEX_ARRAY\DEBUG\VC100.PDB
