^C:\USERS\SEAN-LI\DOCUMENTS\BITBUCKET\KDU\SEMESTER 6\3D PROGRAMMING\WEEK 4\SHADER_HELLOWORLD\SHADER_HELLOWORLD\DEBUG\DEMO.OBJ
C:\USERS\SEAN-LI\DOCUMENTS\BITBUCKET\KDU\SEMESTER 6\3D PROGRAMMING\WEEK 4\SHADER_HELLOWORLD\DEBUG\SHADER_HELLOWORLD.EXE
C:\USERS\SEAN-LI\DOCUMENTS\BITBUCKET\KDU\SEMESTER 6\3D PROGRAMMING\WEEK 4\SHADER_HELLOWORLD\DEBUG\SHADER_HELLOWORLD.PDB
^C:\USERS\SEAN-LI\DOCUMENTS\BITBUCKET\KDU\SEMESTER 6\3D PROGRAMMING\WEEK 4\SHADER_HELLOWORLDEQUALIZER\SHADER_HELLOWORLD\DEBUG\DEMO.OBJ
C:\USERS\SEAN-LI\DOCUMENTS\BITBUCKET\KDU\SEMESTER 6\3D PROGRAMMING\WEEK 4\SHADER_HELLOWORLDEQUALIZER\DEBUG\SHADER_HELLOWORLD.EXE
C:\USERS\SEAN-LI\DOCUMENTS\BITBUCKET\KDU\SEMESTER 6\3D PROGRAMMING\WEEK 4\SHADER_HELLOWORLDEQUALIZER\DEBUG\SHADER_HELLOWORLD.PDB
