^F:\KDU\SEMESTER 3\DATASTRUCTURES & ALGORITHMS\WEEK 3\STACKQUEUEEXERCISE2.1\STACKQUEUEEXERCISE2.1\DEBUG\STACKQUEUEEXERCISE2.1.EXE.EMBED.MANIFEST.RES|F:\KDU\SEMESTER 3\DATASTRUCTURES & ALGORITHMS\WEEK 3\STACKQUEUEEXERCISE2.1\STACKQUEUEEXERCISE2.1\DEBUG\STACKQUEUEEXERCISE2.1.OBJ|F:\KDU\SEMESTER 3\DATASTRUCTURES & ALGORITHMS\WEEK 3\STACKQUEUEEXERCISE2.1\STACKQUEUEEXERCISE2.1\DEBUG\STDAFX.OBJ
F:\KDU\SEMESTER 3\DATASTRUCTURES & ALGORITHMS\WEEK 3\STACKQUEUEEXERCISE2.1\DEBUG\STACKQUEUEEXERCISE2.1.ILK
F:\KDU\SEMESTER 3\DATASTRUCTURES & ALGORITHMS\WEEK 3\STACKQUEUEEXERCISE2.1\DEBUG\STACKQUEUEEXERCISE2.1.EXE
F:\KDU\SEMESTER 3\DATASTRUCTURES & ALGORITHMS\WEEK 3\STACKQUEUEEXERCISE2.1\STACKQUEUEEXERCISE2.1\DEBUG\STACKQUEUEEXERCISE2.1.EXE.INTERMEDIATE.MANIFEST
F:\KDU\SEMESTER 3\DATASTRUCTURES & ALGORITHMS\WEEK 3\STACKQUEUEEXERCISE2.1\DEBUG\STACKQUEUEEXERCISE2.1.PDB
