^F:\KDU\SEMESTER 3\DATASTRUCTURES & ALGORITHMS\WEEK 3\VECTOR\VECTOR\STDAFX.CPP|F:\KDU\SEMESTER 3\DATASTRUCTURES & ALGORITHMS\WEEK 3\VECTOR\VECTOR\VECTOR.CPP
F:\KDU\SEMESTER 3\DATASTRUCTURES & ALGORITHMS\WEEK 3\VECTOR\VECTOR\DEBUG\STDAFX.OBJ
^F:\KDU\SEMESTER 3\DATASTRUCTURES & ALGORITHMS\WEEK 3\VECTOR\VECTOR\STDAFX.CPP
F:\KDU\SEMESTER 3\DATASTRUCTURES & ALGORITHMS\WEEK 3\VECTOR\VECTOR\DEBUG\VC100.PDB
^F:\KDU\SEMESTER 3\DATASTRUCTURES & ALGORITHMS\WEEK 3\VECTOR\VECTOR\VECTOR.CPP
F:\KDU\SEMESTER 3\DATASTRUCTURES & ALGORITHMS\WEEK 3\VECTOR\VECTOR\DEBUG\VC100.PDB
F:\KDU\SEMESTER 3\DATASTRUCTURES & ALGORITHMS\WEEK 3\VECTOR\VECTOR\DEBUG\VECTOR.OBJ
^I:\KDU\SEMESTER 3\DATASTRUCTURES & ALGORITHMS\WEEK 3\VECTOR\VECTOR\STDAFX.CPP|I:\KDU\SEMESTER 3\DATASTRUCTURES & ALGORITHMS\WEEK 3\VECTOR\VECTOR\VECTOR.CPP
I:\KDU\SEMESTER 3\DATASTRUCTURES & ALGORITHMS\WEEK 3\VECTOR\VECTOR\DEBUG\STDAFX.OBJ
^I:\KDU\SEMESTER 3\DATASTRUCTURES & ALGORITHMS\WEEK 3\VECTOR\VECTOR\STDAFX.CPP
I:\KDU\SEMESTER 3\DATASTRUCTURES & ALGORITHMS\WEEK 3\VECTOR\VECTOR\DEBUG\VC100.PDB
^I:\KDU\SEMESTER 3\DATASTRUCTURES & ALGORITHMS\WEEK 3\VECTOR\VECTOR\VECTOR.CPP
I:\KDU\SEMESTER 3\DATASTRUCTURES & ALGORITHMS\WEEK 3\VECTOR\VECTOR\DEBUG\VC100.PDB
I:\KDU\SEMESTER 3\DATASTRUCTURES & ALGORITHMS\WEEK 3\VECTOR\VECTOR\DEBUG\VECTOR.OBJ
