^F:\KDU\SEMESTER 3\DATASTRUCTURES & ALGORITHMS\WEEK 3\VECTOR\VECTOR\DEBUG\VECTOR.EXE.INTERMEDIATE.MANIFEST
F:\KDU\SEMESTER 3\DATASTRUCTURES & ALGORITHMS\WEEK 3\VECTOR\VECTOR\DEBUG\VECTOR.EXE.EMBED.MANIFEST
^I:\KDU\SEMESTER 3\DATASTRUCTURES & ALGORITHMS\WEEK 3\VECTOR\VECTOR\DEBUG\VECTOR.EXE.INTERMEDIATE.MANIFEST
I:\KDU\SEMESTER 3\DATASTRUCTURES & ALGORITHMS\WEEK 3\VECTOR\VECTOR\DEBUG\VECTOR.EXE.EMBED.MANIFEST
