^D:\OOSAD\WEEK 4\FACTORYPATTERN\CONSOLEAPPLICATION1\DEBUG\CONSOLEAPPLICATION1.OBJ|D:\OOSAD\WEEK 4\FACTORYPATTERN\CONSOLEAPPLICATION1\DEBUG\STDAFX.OBJ
D:\OOSAD\WEEK 4\FACTORYPATTERN\CONSOLEAPPLICATION1\DEBUG\CONSOLEAPPLICATION1.ILK
D:\OOSAD\WEEK 4\FACTORYPATTERN\CONSOLEAPPLICATION1\DEBUG\CONSOLEAPPLICATION1.EXE
D:\OOSAD\WEEK 4\FACTORYPATTERN\CONSOLEAPPLICATION1\DEBUG\CONSOLEAPPLICATION1.PDB
