^F:\KDU\SEMESTER 3\DATASTRUCTURES & ALGORITHMS\WEEK 4\INSERTIONSORT\INSERTIONSORT\DEBUG\INSERTIONSORT.EXE.EMBED.MANIFEST.RES|F:\KDU\SEMESTER 3\DATASTRUCTURES & ALGORITHMS\WEEK 4\INSERTIONSORT\INSERTIONSORT\DEBUG\INSERTIONSORT.OBJ|F:\KDU\SEMESTER 3\DATASTRUCTURES & ALGORITHMS\WEEK 4\INSERTIONSORT\INSERTIONSORT\DEBUG\STDAFX.OBJ
/ERRORREPORT:PROMPT /OUT:"F:\KDU\Semester 3\DataStructures & Algorithms\Week 4\InsertionSort\Debug\InsertionSort.exe" /INCREMENTAL /NOLOGO kernel32.lib user32.lib gdi32.lib winspool.lib comdlg32.lib advapi32.lib shell32.lib ole32.lib oleaut32.lib uuid.lib odbc32.lib odbccp32.lib /MANIFEST /ManifestFile:"Debug\InsertionSort.exe.intermediate.manifest" /MANIFESTUAC:"level='asInvoker' uiAccess='false'" /DEBUG /PDB:"F:\KDU\Semester 3\DataStructures & Algorithms\Week 4\InsertionSort\Debug\InsertionSort.pdb" /SUBSYSTEM:CONSOLE /TLBID:1 /DYNAMICBASE /NXCOMPAT /IMPLIB:"F:\KDU\Semester 3\DataStructures & Algorithms\Week 4\InsertionSort\Debug\InsertionSort.lib" /MACHINE:X86 Debug\InsertionSort.exe.embed.manifest.res
Debug\InsertionSort.obj
Debug\stdafx.obj
