^D:\LECTURERSHAREDFOLDER\DSA\MAGICSQUARE\DEBUG\MAGICSQUARE.EXE.EMBED.MANIFEST.RES|D:\LECTURERSHAREDFOLDER\DSA\MAGICSQUARE\DEBUG\MAGICSQUARE.OBJ|D:\LECTURERSHAREDFOLDER\DSA\MAGICSQUARE\DEBUG\STDAFX.OBJ
/ERRORREPORT:PROMPT /OUT:"D:\LecturerSharedFolder\DSA\MagicSquare\Debug\MagicSquare.exe" /INCREMENTAL /NOLOGO kernel32.lib user32.lib gdi32.lib winspool.lib comdlg32.lib advapi32.lib shell32.lib ole32.lib oleaut32.lib uuid.lib odbc32.lib odbccp32.lib /MANIFEST /ManifestFile:"Debug\MagicSquare.exe.intermediate.manifest" /MANIFESTUAC:"level='asInvoker' uiAccess='false'" /DEBUG /PDB:"D:\LecturerSharedFolder\DSA\MagicSquare\Debug\MagicSquare.pdb" /SUBSYSTEM:CONSOLE /TLBID:1 /DYNAMICBASE /NXCOMPAT /IMPLIB:"D:\LecturerSharedFolder\DSA\MagicSquare\Debug\MagicSquare.lib" /MACHINE:X86 Debug\MagicSquare.exe.embed.manifest.res
Debug\MagicSquare.obj
Debug\stdafx.obj
