^F:\KDU\SEMESTER 3\DATASTRUCTURES & ALGORITHMS\WEEK 5 (BINARYTREE)\BINARYTREE\BINARYTREE\DEBUG\BINARYTREE.EXE.EMBED.MANIFEST.RES|F:\KDU\SEMESTER 3\DATASTRUCTURES & ALGORITHMS\WEEK 5 (BINARYTREE)\BINARYTREE\BINARYTREE\DEBUG\BINARYTREE.OBJ|F:\KDU\SEMESTER 3\DATASTRUCTURES & ALGORITHMS\WEEK 5 (BINARYTREE)\BINARYTREE\BINARYTREE\DEBUG\STDAFX.OBJ
F:\KDU\SEMESTER 3\DATASTRUCTURES & ALGORITHMS\WEEK 5 (BINARYTREE)\BINARYTREE\DEBUG\BINARYTREE.ILK
F:\KDU\SEMESTER 3\DATASTRUCTURES & ALGORITHMS\WEEK 5 (BINARYTREE)\BINARYTREE\DEBUG\BINARYTREE.EXE
F:\KDU\SEMESTER 3\DATASTRUCTURES & ALGORITHMS\WEEK 5 (BINARYTREE)\BINARYTREE\BINARYTREE\DEBUG\BINARYTREE.EXE.INTERMEDIATE.MANIFEST
F:\KDU\SEMESTER 3\DATASTRUCTURES & ALGORITHMS\WEEK 5 (BINARYTREE)\BINARYTREE\DEBUG\BINARYTREE.PDB
