^C:\USERS\SEAN-LI\DESKTOP\GITHUB\OOSAD\SEANLI\FINALASSIGNMENT\TEXTRPG\TEXTRPG\DEBUG\STDAFX.OBJ|C:\USERS\SEAN-LI\DESKTOP\GITHUB\OOSAD\SEANLI\FINALASSIGNMENT\TEXTRPG\TEXTRPG\DEBUG\TEXTRPG.OBJ
C:\USERS\SEAN-LI\DESKTOP\GITHUB\OOSAD\SEANLI\FINALASSIGNMENT\TEXTRPG\DEBUG\TEXTRPG.ILK
C:\USERS\SEAN-LI\DESKTOP\GITHUB\OOSAD\SEANLI\FINALASSIGNMENT\TEXTRPG\DEBUG\TEXTRPG.EXE
C:\USERS\SEAN-LI\DESKTOP\GITHUB\OOSAD\SEANLI\FINALASSIGNMENT\TEXTRPG\DEBUG\TEXTRPG.PDB
