^C:\USERS\SEAN-LI\DOCUMENTS\GITHUB\KDU_PROJECTS\SEMESTER 5\GRAPHICS PROGRAMMING\WEEK 2,3\GLFWHELLO\GLFWHELLO\MATRIX.CPP
C:\USERS\SEAN-LI\DOCUMENTS\GITHUB\KDU_PROJECTS\SEMESTER 5\GRAPHICS PROGRAMMING\WEEK 2,3\GLFWHELLO\GLFWHELLO\DEBUG\VC120.PDB
^C:\USERS\SEAN-LI\DOCUMENTS\GITHUB\KDU_PROJECTS\SEMESTER 5\GRAPHICS PROGRAMMING\WEEK 2,3\GLFWHELLO - COPY\GLFWHELLO\MAIN.CPP|C:\USERS\SEAN-LI\DOCUMENTS\GITHUB\KDU_PROJECTS\SEMESTER 5\GRAPHICS PROGRAMMING\WEEK 2,3\GLFWHELLO - COPY\GLFWHELLO\MATRIX.CPP
C:\USERS\SEAN-LI\DOCUMENTS\GITHUB\KDU_PROJECTS\SEMESTER 5\GRAPHICS PROGRAMMING\WEEK 2,3\GLFWHELLO - COPY\GLFWHELLO\DEBUG\VC120.PDB
C:\USERS\SEAN-LI\DOCUMENTS\GITHUB\KDU_PROJECTS\SEMESTER 5\GRAPHICS PROGRAMMING\WEEK 2,3\GLFWHELLO - COPY\GLFWHELLO\DEBUG\VC120.IDB
C:\USERS\SEAN-LI\DOCUMENTS\GITHUB\KDU_PROJECTS\SEMESTER 5\GRAPHICS PROGRAMMING\WEEK 2,3\GLFWHELLO - COPY\GLFWHELLO\DEBUG\MATRIX.OBJ
^C:\USERS\SEAN-LI\DOCUMENTS\GITHUB\KDU_PROJECTS\SEMESTER 5\GRAPHICS PROGRAMMING\WEEK 2,3\GLFWHELLO - COPY\GLFWHELLO\MAIN.CPP
C:\USERS\SEAN-LI\DOCUMENTS\GITHUB\KDU_PROJECTS\SEMESTER 5\GRAPHICS PROGRAMMING\WEEK 2,3\GLFWHELLO - COPY\GLFWHELLO\DEBUG\VC120.PDB
C:\USERS\SEAN-LI\DOCUMENTS\GITHUB\KDU_PROJECTS\SEMESTER 5\GRAPHICS PROGRAMMING\WEEK 2,3\GLFWHELLO - COPY\GLFWHELLO\DEBUG\VC120.IDB
C:\USERS\SEAN-LI\DOCUMENTS\GITHUB\KDU_PROJECTS\SEMESTER 5\GRAPHICS PROGRAMMING\WEEK 2,3\GLFWHELLO - COPY\GLFWHELLO\DEBUG\MAIN.OBJ
^C:\USERS\SEAN-LI\DOCUMENTS\GITHUB\KDU_PROJECTS\SEMESTER 5\GRAPHICS PROGRAMMING\WEEK 2,3\GLFWHELLO - COPY\GLFWHELLO\MATRIX.CPP
C:\USERS\SEAN-LI\DOCUMENTS\GITHUB\KDU_PROJECTS\SEMESTER 5\GRAPHICS PROGRAMMING\WEEK 2,3\GLFWHELLO - COPY\GLFWHELLO\DEBUG\VC120.PDB
^C:\USERS\SEAN-LI\DOCUMENTS\GITHUB\KDU_PROJECTS\SEMESTER 5\GRAPHICS PROGRAMMING\WEEK 2,3\WEEK 6\GLFWHELLO\MAIN.CPP|C:\USERS\SEAN-LI\DOCUMENTS\GITHUB\KDU_PROJECTS\SEMESTER 5\GRAPHICS PROGRAMMING\WEEK 2,3\WEEK 6\GLFWHELLO\MATRIX.CPP
C:\USERS\SEAN-LI\DOCUMENTS\GITHUB\KDU_PROJECTS\SEMESTER 5\GRAPHICS PROGRAMMING\WEEK 2,3\WEEK 6\GLFWHELLO\DEBUG\VC120.PDB
C:\USERS\SEAN-LI\DOCUMENTS\GITHUB\KDU_PROJECTS\SEMESTER 5\GRAPHICS PROGRAMMING\WEEK 2,3\WEEK 6\GLFWHELLO\DEBUG\VC120.IDB
C:\USERS\SEAN-LI\DOCUMENTS\GITHUB\KDU_PROJECTS\SEMESTER 5\GRAPHICS PROGRAMMING\WEEK 2,3\WEEK 6\GLFWHELLO\DEBUG\MATRIX.OBJ
^C:\USERS\SEAN-LI\DOCUMENTS\GITHUB\KDU_PROJECTS\SEMESTER 5\GRAPHICS PROGRAMMING\WEEK 2,3\WEEK 6\GLFWHELLO\MAIN.CPP
C:\USERS\SEAN-LI\DOCUMENTS\GITHUB\KDU_PROJECTS\SEMESTER 5\GRAPHICS PROGRAMMING\WEEK 2,3\WEEK 6\GLFWHELLO\DEBUG\VC120.PDB
C:\USERS\SEAN-LI\DOCUMENTS\GITHUB\KDU_PROJECTS\SEMESTER 5\GRAPHICS PROGRAMMING\WEEK 2,3\WEEK 6\GLFWHELLO\DEBUG\VC120.IDB
C:\USERS\SEAN-LI\DOCUMENTS\GITHUB\KDU_PROJECTS\SEMESTER 5\GRAPHICS PROGRAMMING\WEEK 2,3\WEEK 6\GLFWHELLO\DEBUG\MAIN.OBJ
^C:\USERS\SEAN-LI\DOCUMENTS\GITHUB\KDU_PROJECTS\SEMESTER 5\GRAPHICS PROGRAMMING\WEEK 2,3\WEEK 6\GLFWHELLO\MATRIX.CPP
C:\USERS\SEAN-LI\DOCUMENTS\GITHUB\KDU_PROJECTS\SEMESTER 5\GRAPHICS PROGRAMMING\WEEK 2,3\WEEK 6\GLFWHELLO\DEBUG\VC120.PDB
^C:\USERS\SEAN-LI\DOCUMENTS\GITHUB\KDU_PROJECTS\SEMESTER 5\GRAPHICS PROGRAMMING\WEEK 2,3\WEEK 8 (WAVE)\GLFWHELLO\MAIN.CPP|C:\USERS\SEAN-LI\DOCUMENTS\GITHUB\KDU_PROJECTS\SEMESTER 5\GRAPHICS PROGRAMMING\WEEK 2,3\WEEK 8 (WAVE)\GLFWHELLO\MATRIX.CPP
C:\USERS\SEAN-LI\DOCUMENTS\GITHUB\KDU_PROJECTS\SEMESTER 5\GRAPHICS PROGRAMMING\WEEK 2,3\WEEK 8 (WAVE)\GLFWHELLO\DEBUG\VC120.PDB
C:\USERS\SEAN-LI\DOCUMENTS\GITHUB\KDU_PROJECTS\SEMESTER 5\GRAPHICS PROGRAMMING\WEEK 2,3\WEEK 8 (WAVE)\GLFWHELLO\DEBUG\VC120.IDB
C:\USERS\SEAN-LI\DOCUMENTS\GITHUB\KDU_PROJECTS\SEMESTER 5\GRAPHICS PROGRAMMING\WEEK 2,3\WEEK 8 (WAVE)\GLFWHELLO\DEBUG\MAIN.OBJ
C:\USERS\SEAN-LI\DOCUMENTS\GITHUB\KDU_PROJECTS\SEMESTER 5\GRAPHICS PROGRAMMING\WEEK 2,3\WEEK 8 (WAVE)\GLFWHELLO\DEBUG\MATRIX.OBJ
^C:\USERS\SEAN-LI\DOCUMENTS\GITHUB\KDU_PROJECTS\SEMESTER 5\GRAPHICS PROGRAMMING\WEEK 2,3\WEEK 8 (WAVE)\GLFWHELLO\MAIN.CPP
C:\USERS\SEAN-LI\DOCUMENTS\GITHUB\KDU_PROJECTS\SEMESTER 5\GRAPHICS PROGRAMMING\WEEK 2,3\WEEK 8 (WAVE)\GLFWHELLO\DEBUG\VC120.PDB
C:\USERS\SEAN-LI\DOCUMENTS\GITHUB\KDU_PROJECTS\SEMESTER 5\GRAPHICS PROGRAMMING\WEEK 2,3\WEEK 8 (WAVE)\GLFWHELLO\DEBUG\VC120.IDB
C:\USERS\SEAN-LI\DOCUMENTS\GITHUB\KDU_PROJECTS\SEMESTER 5\GRAPHICS PROGRAMMING\WEEK 2,3\WEEK 8 (WAVE)\GLFWHELLO\DEBUG\MAIN.OBJ
^C:\USERS\SEAN-LI\DOCUMENTS\GITHUB\KDU_PROJECTS\SEMESTER 5\GRAPHICS PROGRAMMING\WEEK 2,3\WEEK 8 (WAVE)\GLFWHELLO\MATRIX.CPP
C:\USERS\SEAN-LI\DOCUMENTS\GITHUB\KDU_PROJECTS\SEMESTER 5\GRAPHICS PROGRAMMING\WEEK 2,3\WEEK 8 (WAVE)\GLFWHELLO\DEBUG\VC120.PDB
^C:\USERS\SEAN-LI\DOCUMENTS\GITHUB\KDU_PROJECTS\SEMESTER 5\GRAPHICS PROGRAMMING\WEEK 2,3\WEEK 8 (WAVE, NORMALS)\GLFWHELLO\MAIN.CPP|C:\USERS\SEAN-LI\DOCUMENTS\GITHUB\KDU_PROJECTS\SEMESTER 5\GRAPHICS PROGRAMMING\WEEK 2,3\WEEK 8 (WAVE, NORMALS)\GLFWHELLO\MATRIX.CPP
C:\USERS\SEAN-LI\DOCUMENTS\GITHUB\KDU_PROJECTS\SEMESTER 5\GRAPHICS PROGRAMMING\WEEK 2,3\WEEK 8 (WAVE, NORMALS)\GLFWHELLO\DEBUG\VC120.PDB
C:\USERS\SEAN-LI\DOCUMENTS\GITHUB\KDU_PROJECTS\SEMESTER 5\GRAPHICS PROGRAMMING\WEEK 2,3\WEEK 8 (WAVE, NORMALS)\GLFWHELLO\DEBUG\VC120.IDB
C:\USERS\SEAN-LI\DOCUMENTS\GITHUB\KDU_PROJECTS\SEMESTER 5\GRAPHICS PROGRAMMING\WEEK 2,3\WEEK 8 (WAVE, NORMALS)\GLFWHELLO\DEBUG\MAIN.OBJ
C:\USERS\SEAN-LI\DOCUMENTS\GITHUB\KDU_PROJECTS\SEMESTER 5\GRAPHICS PROGRAMMING\WEEK 2,3\WEEK 8 (WAVE, NORMALS)\GLFWHELLO\DEBUG\MATRIX.OBJ
^C:\USERS\SEAN-LI\DOCUMENTS\GITHUB\KDU_PROJECTS\SEMESTER 5\GRAPHICS PROGRAMMING\WEEK 2,3\WEEK 8 (WAVE, NORMALS)\GLFWHELLO\MAIN.CPP
C:\USERS\SEAN-LI\DOCUMENTS\GITHUB\KDU_PROJECTS\SEMESTER 5\GRAPHICS PROGRAMMING\WEEK 2,3\WEEK 8 (WAVE, NORMALS)\GLFWHELLO\DEBUG\VC120.PDB
C:\USERS\SEAN-LI\DOCUMENTS\GITHUB\KDU_PROJECTS\SEMESTER 5\GRAPHICS PROGRAMMING\WEEK 2,3\WEEK 8 (WAVE, NORMALS)\GLFWHELLO\DEBUG\VC120.IDB
C:\USERS\SEAN-LI\DOCUMENTS\GITHUB\KDU_PROJECTS\SEMESTER 5\GRAPHICS PROGRAMMING\WEEK 2,3\WEEK 8 (WAVE, NORMALS)\GLFWHELLO\DEBUG\MAIN.OBJ
^C:\USERS\SEAN-LI\DOCUMENTS\GITHUB\KDU_PROJECTS\SEMESTER 5\GRAPHICS PROGRAMMING\WEEK 2,3\WEEK 8 (WAVE, NORMALS)\GLFWHELLO\MATRIX.CPP
C:\USERS\SEAN-LI\DOCUMENTS\GITHUB\KDU_PROJECTS\SEMESTER 5\GRAPHICS PROGRAMMING\WEEK 2,3\WEEK 8 (WAVE, NORMALS)\GLFWHELLO\DEBUG\VC120.PDB
^C:\USERS\SEAN-LI\DOCUMENTS\GITHUB\KDU_PROJECTS\SEMESTER 5\GRAPHICS PROGRAMMING\WEEK 2,3\WEEK 8 (WAVE,NORMALS,SOUNDS)\GLFWHELLO\MAIN.CPP|C:\USERS\SEAN-LI\DOCUMENTS\GITHUB\KDU_PROJECTS\SEMESTER 5\GRAPHICS PROGRAMMING\WEEK 2,3\WEEK 8 (WAVE,NORMALS,SOUNDS)\GLFWHELLO\MATRIX.CPP
C:\USERS\SEAN-LI\DOCUMENTS\GITHUB\KDU_PROJECTS\SEMESTER 5\GRAPHICS PROGRAMMING\WEEK 2,3\WEEK 8 (WAVE,NORMALS,SOUNDS)\GLFWHELLO\DEBUG\VC120.PDB
C:\USERS\SEAN-LI\DOCUMENTS\GITHUB\KDU_PROJECTS\SEMESTER 5\GRAPHICS PROGRAMMING\WEEK 2,3\WEEK 8 (WAVE,NORMALS,SOUNDS)\GLFWHELLO\DEBUG\VC120.IDB
C:\USERS\SEAN-LI\DOCUMENTS\GITHUB\KDU_PROJECTS\SEMESTER 5\GRAPHICS PROGRAMMING\WEEK 2,3\WEEK 8 (WAVE,NORMALS,SOUNDS)\GLFWHELLO\DEBUG\MATRIX.OBJ
^C:\USERS\SEAN-LI\DOCUMENTS\GITHUB\KDU_PROJECTS\SEMESTER 5\GRAPHICS PROGRAMMING\WEEK 2,3\WEEK 8 (WAVE,NORMALS,SOUNDS)\GLFWHELLO\MAIN.CPP
C:\USERS\SEAN-LI\DOCUMENTS\GITHUB\KDU_PROJECTS\SEMESTER 5\GRAPHICS PROGRAMMING\WEEK 2,3\WEEK 8 (WAVE,NORMALS,SOUNDS)\GLFWHELLO\DEBUG\VC120.PDB
C:\USERS\SEAN-LI\DOCUMENTS\GITHUB\KDU_PROJECTS\SEMESTER 5\GRAPHICS PROGRAMMING\WEEK 2,3\WEEK 8 (WAVE,NORMALS,SOUNDS)\GLFWHELLO\DEBUG\VC120.IDB
C:\USERS\SEAN-LI\DOCUMENTS\GITHUB\KDU_PROJECTS\SEMESTER 5\GRAPHICS PROGRAMMING\WEEK 2,3\WEEK 8 (WAVE,NORMALS,SOUNDS)\GLFWHELLO\DEBUG\MAIN.OBJ
^C:\USERS\SEAN-LI\DOCUMENTS\GITHUB\KDU_PROJECTS\SEMESTER 5\GRAPHICS PROGRAMMING\WEEK 2,3\WEEK 8 (WAVE,NORMALS,SOUNDS)\GLFWHELLO\MATRIX.CPP
C:\USERS\SEAN-LI\DOCUMENTS\GITHUB\KDU_PROJECTS\SEMESTER 5\GRAPHICS PROGRAMMING\WEEK 2,3\WEEK 8 (WAVE,NORMALS,SOUNDS)\GLFWHELLO\DEBUG\VC120.PDB
^C:\USERS\SEAN-LI\DOCUMENTS\GITHUB\KDU_PROJECTS\SEMESTER 5\GRAPHICS PROGRAMMING\WEEK 2,3\FINALDEMO\GLFWHELLO\MAIN.CPP|C:\USERS\SEAN-LI\DOCUMENTS\GITHUB\KDU_PROJECTS\SEMESTER 5\GRAPHICS PROGRAMMING\WEEK 2,3\FINALDEMO\GLFWHELLO\MATRIX.CPP
C:\USERS\SEAN-LI\DOCUMENTS\GITHUB\KDU_PROJECTS\SEMESTER 5\GRAPHICS PROGRAMMING\WEEK 2,3\FINALDEMO\GLFWHELLO\DEBUG\VC120.PDB
C:\USERS\SEAN-LI\DOCUMENTS\GITHUB\KDU_PROJECTS\SEMESTER 5\GRAPHICS PROGRAMMING\WEEK 2,3\FINALDEMO\GLFWHELLO\DEBUG\VC120.IDB
C:\USERS\SEAN-LI\DOCUMENTS\GITHUB\KDU_PROJECTS\SEMESTER 5\GRAPHICS PROGRAMMING\WEEK 2,3\FINALDEMO\GLFWHELLO\DEBUG\MAIN.OBJ
C:\USERS\SEAN-LI\DOCUMENTS\GITHUB\KDU_PROJECTS\SEMESTER 5\GRAPHICS PROGRAMMING\WEEK 2,3\FINALDEMO\GLFWHELLO\DEBUG\MATRIX.OBJ
^C:\USERS\SEAN-LI\DOCUMENTS\GITHUB\KDU_PROJECTS\SEMESTER 5\GRAPHICS PROGRAMMING\WEEK 2,3\FINALDEMO\GLFWHELLO\MAIN.CPP
C:\USERS\SEAN-LI\DOCUMENTS\GITHUB\KDU_PROJECTS\SEMESTER 5\GRAPHICS PROGRAMMING\WEEK 2,3\FINALDEMO\GLFWHELLO\DEBUG\VC120.PDB
C:\USERS\SEAN-LI\DOCUMENTS\GITHUB\KDU_PROJECTS\SEMESTER 5\GRAPHICS PROGRAMMING\WEEK 2,3\FINALDEMO\GLFWHELLO\DEBUG\VC120.IDB
C:\USERS\SEAN-LI\DOCUMENTS\GITHUB\KDU_PROJECTS\SEMESTER 5\GRAPHICS PROGRAMMING\WEEK 2,3\FINALDEMO\GLFWHELLO\DEBUG\MAIN.OBJ
^C:\USERS\SEAN-LI\DOCUMENTS\GITHUB\KDU_PROJECTS\SEMESTER 5\GRAPHICS PROGRAMMING\WEEK 2,3\FINALDEMO\GLFWHELLO\MATRIX.CPP
C:\USERS\SEAN-LI\DOCUMENTS\GITHUB\KDU_PROJECTS\SEMESTER 5\GRAPHICS PROGRAMMING\WEEK 2,3\FINALDEMO\GLFWHELLO\DEBUG\VC120.PDB
^C:\USERS\SEAN-LI\DOCUMENTS\GITHUB\KDU_PROJECTS\SEMESTER 5\GRAPHICS PROGRAMMING\WEEK 2,3\FINALDEMO\GLFWHELLO\FIREWORKS.CPP|C:\USERS\SEAN-LI\DOCUMENTS\GITHUB\KDU_PROJECTS\SEMESTER 5\GRAPHICS PROGRAMMING\WEEK 2,3\FINALDEMO\GLFWHELLO\MAIN.CPP
C:\USERS\SEAN-LI\DOCUMENTS\GITHUB\KDU_PROJECTS\SEMESTER 5\GRAPHICS PROGRAMMING\WEEK 2,3\FINALDEMO\GLFWHELLO\DEBUG\VC120.PDB
C:\USERS\SEAN-LI\DOCUMENTS\GITHUB\KDU_PROJECTS\SEMESTER 5\GRAPHICS PROGRAMMING\WEEK 2,3\FINALDEMO\GLFWHELLO\DEBUG\VC120.IDB
C:\USERS\SEAN-LI\DOCUMENTS\GITHUB\KDU_PROJECTS\SEMESTER 5\GRAPHICS PROGRAMMING\WEEK 2,3\FINALDEMO\GLFWHELLO\DEBUG\MAIN.OBJ
^C:\USERS\SEAN-LI\DOCUMENTS\GITHUB\KDU_PROJECTS\SEMESTER 5\GRAPHICS PROGRAMMING\WEEK 2,3\FINALDEMO\GLFWHELLO\FIREWORKS.CPP
C:\USERS\SEAN-LI\DOCUMENTS\GITHUB\KDU_PROJECTS\SEMESTER 5\GRAPHICS PROGRAMMING\WEEK 2,3\FINALDEMO\GLFWHELLO\DEBUG\VC120.PDB
