^C:\USERS\SEAN-LI MURMANN\GOOGLE DRIVE\KDU\SEMESTER 3\DATASTRUCTURES & ALGORITHMS\WEEK 8 (ALPHABETLIST)\ALPHABETLIST\ALPHABETLIST\ALPHABETLIST.CPP
/c /ZI /nologo /W3 /WX- /Od /Oy- /D WIN32 /D _DEBUG /D _CONSOLE /D _UNICODE /D UNICODE /Gm /EHsc /RTC1 /MDd /GS /fp:precise /Zc:wchar_t /Zc:forScope /Fo"Debug\\" /Fd"Debug\vc100.pdb" /Gd /TP /analyze- /errorReport:prompt C:\USERS\SEAN-LI MURMANN\GOOGLE DRIVE\KDU\SEMESTER 3\DATASTRUCTURES & ALGORITHMS\WEEK 8 (ALPHABETLIST)\ALPHABETLIST\ALPHABETLIST\ALPHABETLIST.CPP
^C:\USERS\SEAN-LI MURMANN\GOOGLE DRIVE\KDU\SEMESTER 3\DATASTRUCTURES & ALGORITHMS\WEEK 8 (ALPHABETLIST)\ALPHABETLIST\ALPHABETLIST\STDAFX.CPP
/c /ZI /nologo /W3 /WX- /Od /Oy- /D WIN32 /D _DEBUG /D _CONSOLE /D _UNICODE /D UNICODE /Gm /EHsc /RTC1 /MDd /GS /fp:precise /Zc:wchar_t /Zc:forScope /Fo"Debug\\" /Fd"Debug\vc100.pdb" /Gd /TP /analyze- /errorReport:prompt C:\USERS\SEAN-LI MURMANN\GOOGLE DRIVE\KDU\SEMESTER 3\DATASTRUCTURES & ALGORITHMS\WEEK 8 (ALPHABETLIST)\ALPHABETLIST\ALPHABETLIST\STDAFX.CPP
